<?xml version="1.0" encoding="UTF-8"?>
<svg width="20px" height="32px" viewBox="0 0 20 32" version="1.1" xmlns="http://www.w3.org/2000/svg" xmlns:xlink="http://www.w3.org/1999/xlink">
    <!-- Generator: sketchtool 56.3 (101010) - https://sketch.com -->
    <title>5B2708E3-C139-4612-BD19-C59A5802B1E7</title>
    <desc>Created with sketchtool.</desc>
    <g id="ZDRAVPO" stroke="none" stroke-width="1" fill="none" fill-rule="evenodd">
        <g id="Zdravpo---Homepage" transform="translate(-822.000000, -2196.000000)" fill="#17A94A" fill-rule="nonzero">
            <g id="Paticka" transform="translate(0.000000, 2160.000000)">
                <g id="Nase-prodejna-Copy" transform="translate(816.000000, 27.000000)">
                    <g id="30" transform="translate(0.000000, 9.000000)">
                        <path d="M20,12 C20,14.209139 18.209139,16 16,16 C13.790861,16 12,14.209139 12,12 C12,9.790861 13.790861,8 16,8 C18.209139,8 20,9.790861 20,12 Z M14,12 C14,13.1045695 14.8954305,14 16,14 C17.1045695,14 18,13.1045695 18,12 C18,10.8954305 17.1045695,10 16,10 C14.8954305,10 14,10.8954305 14,12 Z" id="Oval-38"></path>
                        <path d="M17.1724037,31.136574 C17.4863797,30.7378099 17.8355401,30.2804585 18.2111318,29.7710398 C19.2831213,28.3170901 20.3548276,26.7340965 21.3563375,25.0733623 C22.9498329,22.4309802 24.2127499,19.844355 25.0215628,17.3957122 C25.6595297,15.4642976 26,13.6589757 26,12 C26,4.40100286 21.7366674,-2.48948779e-15 16,0 C10.4869873,2.45576386e-15 6,4.51012816 6,12 C6,13.70658 6.36664192,15.575323 7.05168633,17.5833687 C7.86315145,19.9619868 9.09818108,22.4742574 10.6430609,25.0427919 C11.6442871,26.7074419 12.7156853,28.2965518 13.7873502,29.7578861 C14.1628109,30.2698685 14.511839,30.7297519 14.8256815,31.1309 C15.0155459,31.3735814 15.1526108,31.5440917 15.2281146,31.6357617 C15.6271988,32.1202943 16.3688142,32.1216132 16.7696193,31.6385031 C16.8452404,31.5473532 16.9824224,31.3778592 17.1724037,31.136574 Z M16.7718854,30.3642383 C16.7067642,30.2851739 16.5801572,30.1276734 16.400881,29.8985257 C16.0994891,29.5132918 15.7629704,29.0698908 15.4001498,28.5751446 C14.3624397,27.1601113 13.3244629,25.6205725 12.3569391,24.0119566 C10.8796263,21.5557597 9.70468743,19.1657245 8.9445675,16.9376127 C8.32542265,15.1227359 8,13.4640841 8,12 C8,5.61240115 11.5938664,2 16,2 C20.6176241,2 24,5.49159858 24,12 C24,13.4250782 23.6981515,15.0256106 23.1224812,16.7684252 C22.3662399,19.0579101 21.1660532,21.5160549 19.6436625,24.0405293 C18.6764224,25.644436 17.6387537,27.1771535 16.6013682,28.5841695 C16.2386787,29.0760888 15.9022922,29.5167082 15.6010338,29.8993204 C15.4218745,30.126861 15.2953846,30.2831445 15.2303807,30.3614969 L16.7718854,30.3642383 Z" id="Oval-37"></path>
                    </g>
                </g>
            </g>
        </g>
    </g>
</svg>